<?xml version="1.0" encoding="utf-8"?>
<!-- Generator: Adobe Illustrator 21.0.2, SVG Export Plug-In . SVG Version: 6.00 Build 0)  -->
<svg version="1.1" id="Capa_1" xmlns="http://www.w3.org/2000/svg" xmlns:xlink="http://www.w3.org/1999/xlink" x="0px" y="0px"
	 viewBox="0 0 86 86" style="enable-background:new 0 0 86 86;" xml:space="preserve">
<style type="text/css">
	.st0{fill:#030104;}
</style>
<g>
	<path class="st0" d="M21,80.1c-1.3,1.4-1.3,3.5,0,4.9c1.3,1.3,3.5,1.4,4.8,0L65,45.4c1.3-1.4,1.3-3.5,0-4.9L25.8,1
		c-1.3-1.4-3.5-1.4-4.8,0s-1.3,3.5,0,4.9L56.7,43L21,80.1z"/>
</g>
</svg>
