<?xml version="1.0" encoding="utf-8"?>
<!-- Generator: Adobe Illustrator 21.0.2, SVG Export Plug-In . SVG Version: 6.00 Build 0)  -->
<svg version="1.1" id="Layer_1" xmlns="http://www.w3.org/2000/svg" xmlns:xlink="http://www.w3.org/1999/xlink" x="0px" y="0px"
	 viewBox="0 0 369.7 143.7" style="enable-background:new 0 0 369.7 143.7;" xml:space="preserve">
<style type="text/css">
	.st0{fill:#E52520;}
</style>
<g id="XMLID_4_">
	<g id="XMLID_17_">
		<rect id="XMLID_25_" x="244.9" width="22.2" height="118.9"/>
		<polygon id="XMLID_24_" points="276.5,0 276.5,20.7 312,20.7 312,119 334.2,119 334.2,20.7 369.7,20.7 369.7,0 		"/>
		<path id="XMLID_23_" d="M125.7,56.8l12.9-29.2L126.8,0.3l-24.2,56.5H69.8v19.8h24.1c-6.3,12.6-19.3,21.3-34.4,21.3
			c-21.2,0-38.4-17.2-38.4-38.4s17.2-38.4,38.4-38.4c17.1,0,31.6,11.2,36.6,26.7l10.7-24.4C95.9,9.2,78.8,0,59.5,0
			C26.7,0,0,26.6,0,59.5C0,92.3,26.6,119,59.5,119c23.1,0,43-13.1,52.9-32.3l0,0l0.1-0.1c0.9-1.7,1.6-3.4,2.3-5.2l2.2-4.9h42.7
			l-8.5-19.7H125.7z"/>
		<rect id="XMLID_22_" x="185.8" width="22.2" height="118.9"/>
	</g>
	<g id="XMLID_3_">
		<path id="XMLID_27_" class="st0" d="M11.3,139.8c0,2.5-2,3.9-5,3.9c-2.2,0-3.3-0.2-5.3-1.2l0.9-2c1.7,0.8,2.9,1,4.5,1
			c1.4,0,2.2-0.5,2.2-1.5c0-0.9-0.9-1.3-2.7-1.7c-2.6-0.6-4.8-1.3-4.8-3.9c0-2.3,1.8-3.9,4.7-3.9c1.9,0,3.7,0.5,4.9,1l-1.1,2.1
			c-1.1-0.5-2.7-0.9-3.9-0.9c-1.3,0-2,0.6-2,1.4c0,0.9,0.9,1.3,2.8,1.7C9.4,136.5,11.3,137.4,11.3,139.8z"/>
		<path id="XMLID_29_" class="st0" d="M30.1,137.1c0,3.6-3,6.6-6.8,6.6s-6.8-2.9-6.8-6.6c0-3.6,3.1-6.6,6.8-6.6
			C27,130.6,30.1,133.5,30.1,137.1z M27.4,137.1c0-2.3-1.9-4.1-4.2-4.1s-4.2,1.9-4.2,4.1c0,2.3,1.9,4.1,4.2,4.1
			C25.5,141.2,27.4,139.4,27.4,137.1z"/>
		<path id="XMLID_32_" class="st0" d="M45.1,141.3v2.2h-9.2v-12.8h2.6v10.6H45.1z"/>
		<path id="XMLID_34_" class="st0" d="M61.5,138.4c0,2.9-2,5.3-5.7,5.3s-5.7-2.3-5.7-5.3v-7.7h2.5v7c0,2.4,1.1,3.6,3.1,3.6
			c2.1,0,3.1-1.2,3.1-3.6v-7h2.5v7.7H61.5z"/>
		<path id="XMLID_36_" class="st0" d="M77.2,139.5l2,1.7c-1.3,1.5-3.1,2.4-5.3,2.4c-3.7,0-6.8-2.9-6.8-6.6c0-3.6,3-6.6,6.8-6.6
			c2.1,0,4,1,5.3,2.5l-2,1.7c-0.7-1-1.9-1.7-3.3-1.7c-2.2,0-4.1,1.6-4.1,4.1c0,2.4,1.8,4.1,4.1,4.1
			C75.3,141.2,76.5,140.6,77.2,139.5z"/>
		<path id="XMLID_38_" class="st0" d="M87.5,143.5h-2.6v-12.8h2.6V143.5z"/>
		<path id="XMLID_40_" class="st0" d="M106.9,137.1c0,3.6-3,6.6-6.8,6.6s-6.8-2.9-6.8-6.6c0-3.6,3.1-6.6,6.8-6.6
			C103.9,130.6,106.9,133.5,106.9,137.1z M104.3,137.1c0-2.3-1.9-4.1-4.2-4.1c-2.3,0-4.2,1.9-4.2,4.1c0,2.3,1.9,4.1,4.2,4.1
			C102.4,141.2,104.3,139.4,104.3,137.1z"/>
		<path id="XMLID_43_" class="st0" d="M124.3,130.7v12.8H123l-7.7-8.1v8.1h-2.6v-12.8h1.3l7.6,8.1v-8.1H124.3z"/>
		<path id="XMLID_45_" class="st0" d="M140.4,141.3v2.3h-9.8v-12.8h9.5v2.3h-6.9v3.3h5.8v2.2h-5.8v2.9h7.2V141.3z"/>
		<path id="XMLID_47_" class="st0" d="M155.8,139.8c0,2.5-2,3.9-5,3.9c-2.2,0-3.3-0.2-5.3-1.2l0.9-2c1.7,0.8,2.9,1,4.5,1
			c1.4,0,2.2-0.5,2.2-1.5c0-0.9-0.9-1.3-2.7-1.7c-2.6-0.6-4.8-1.3-4.8-3.9c0-2.3,1.8-3.9,4.7-3.9c1.9,0,3.7,0.5,4.9,1l-1.1,2.1
			c-1.1-0.5-2.7-0.9-3.9-0.9c-1.3,0-2,0.6-2,1.4c0,0.9,0.9,1.3,2.8,1.7C154,136.5,155.8,137.4,155.8,139.8z"/>
		<path id="XMLID_49_" class="st0" d="M180.9,141.3v2.3h-9.8v-12.8h9.5v2.3h-6.9v3.3h5.8v2.2h-5.8v2.9h7.2V141.3z"/>
		<path id="XMLID_51_" class="st0" d="M199.8,130.7v12.8h-2.6v-7.1l-4,5.6l-4-5.6v7.1h-2.6v-12.8h1.3l5.3,7.4l5.3-7.4H199.8z"/>
		<path id="XMLID_53_" class="st0" d="M211.4,130.7c3.8,0,5,2.2,5,4.6c0,3.5-2.3,4.9-5.5,4.9h-2.2v3.3h-2.6v-12.8H211.4z
			 M210.6,138.1c2.1,0,3.1-1,3.1-2.5c0-1.3-0.7-2.6-2.7-2.6h-2.3v5.1H210.6z"/>
		<path id="XMLID_56_" class="st0" d="M227.4,140.2c-0.1,0-0.3,0-0.5,0h-2.4v3.3h-2.6v-12.8h5.7c3.8,0,5,2.2,5,4.6
			c0,2.2-0.9,3.7-2.6,4.4l3,3.8h-3.1L227.4,140.2z M224.5,138.1h2.3c2.1,0,3.1-1.1,3.1-2.6c0-1.3-0.7-2.6-2.7-2.6h-2.6v5.2
			L224.5,138.1L224.5,138.1z"/>
		<path id="XMLID_59_" class="st0" d="M248.2,141.3v2.3h-9.8v-12.8h9.5v2.3H241v3.3h5.8v2.2H241v2.9h7.2V141.3z"/>
		<path id="XMLID_61_" class="st0" d="M263.6,139.8c0,2.5-2,3.9-5,3.9c-2.2,0-3.3-0.2-5.3-1.2l0.9-2c1.7,0.8,2.9,1,4.5,1
			c1.4,0,2.2-0.5,2.2-1.5c0-0.9-0.9-1.3-2.7-1.7c-2.6-0.6-4.8-1.3-4.8-3.9c0-2.3,1.8-3.9,4.7-3.9c1.9,0,3.7,0.5,4.9,1l-1.1,2.1
			c-1.1-0.5-2.7-0.9-3.9-0.9c-1.3,0-2,0.6-2,1.4c0,0.9,0.9,1.3,2.8,1.7C261.7,136.5,263.6,137.4,263.6,139.8z"/>
		<path id="XMLID_63_" class="st0" d="M277.5,140.9h-5.7l-1.1,2.6h-2.8l6.1-12.8h1.3l6.1,12.8h-2.7L277.5,140.9z M272.7,138.8h3.9
			l-1.9-4.2L272.7,138.8z"/>
		<path id="XMLID_66_" class="st0" d="M292.1,140.2c-0.1,0-0.3,0-0.5,0h-2.4v3.3h-2.6v-12.8h5.7c3.8,0,5,2.2,5,4.6
			c0,2.2-0.9,3.7-2.6,4.4l3,3.8h-3.1L292.1,140.2z M289.2,138.1h2.3c2.1,0,3.1-1.1,3.1-2.6c0-1.3-0.7-2.6-2.7-2.6h-2.6L289.2,138.1
			L289.2,138.1z"/>
		<path id="XMLID_69_" class="st0" d="M305.8,143.5h-2.6v-12.8h2.6V143.5z"/>
		<path id="XMLID_71_" class="st0" d="M320.6,140.9h-5.7l-1.1,2.6h-2.7l6.1-12.8h1.3l6.1,12.8h-2.7L320.6,140.9z M315.8,138.8h3.9
			l-1.9-4.2L315.8,138.8z"/>
		<path id="XMLID_74_" class="st0" d="M338.9,141.3v2.2h-9.2v-12.8h2.6v10.6H338.9z"/>
		<path id="XMLID_76_" class="st0" d="M354.3,141.3v2.3h-9.8v-12.8h9.5v2.3h-7.1v3.3h5.8v2.2h-5.8v2.9h7.4V141.3z"/>
		<path id="XMLID_78_" class="st0" d="M369.7,139.8c0,2.5-2,3.9-5,3.9c-2.2,0-3.3-0.2-5.3-1.2l0.9-2c1.7,0.8,2.9,1,4.5,1
			c1.4,0,2.2-0.5,2.2-1.5c0-0.9-0.9-1.3-2.7-1.7c-2.6-0.6-4.8-1.3-4.8-3.9c0-2.3,1.8-3.9,4.7-3.9c1.9,0,3.7,0.5,4.9,1l-1.1,2.1
			c-1.1-0.5-2.7-0.9-3.9-0.9c-1.3,0-2,0.6-2,1.4c0,0.9,0.9,1.3,2.8,1.7C367.8,136.5,369.7,137.4,369.7,139.8z"/>
	</g>
	<polygon id="XMLID_6_" class="st0" points="208,119 156.8,0 126.8,0 178,119 	"/>
	<polygon id="XMLID_5_" class="st0" points="267.1,119 215.9,0 185.8,0 237.1,119 	"/>
</g>
</svg>
