<svg fill="#FFFFFF" height="512pt" viewBox="-128 0 512 512" width="512pt" xmlns="http://www.w3.org/2000/svg">
<style type="text/css">
	.st0{fill:#FFFFFF;}
</style>
<path  class="st0" fill="#FFFFFF" d="m112 416c-1.867188 0-3.765625-.328125-5.617188-1.015625-8.273437-3.109375-12.46875-12.328125-9.367187-20.609375l39.898437-106.375h-40.914062c-5.25 0-10.164062-2.578125-13.148438-6.890625-2.992187-4.3125-3.671874-9.8125-1.835937-14.734375l48-128c3.109375-8.265625 12.335937-12.421875 20.601563-9.359375 8.273437 3.109375 12.46875 12.328125 9.367187 20.609375l-39.898437 106.375h40.914062c5.25 0 10.164062 2.578125 13.148438 6.890625 2.992187 4.3125 3.671874 9.8125 1.835937 14.734375l-48 128c-2.414063 6.421875-8.507813 10.375-14.984375 10.375zm0 0"/>
<path  class="st0" fill="#FFFFFF" d="m240 48h-48v-32c0-8.84375-7.164062-16-16-16h-96c-8.835938 0-16 7.15625-16 16v32h-48c-8.835938 0-16 7.15625-16 16v432c0 8.84375 7.164062 16 16 16h224c8.835938 0 16-7.15625 16-16v-432c0-8.84375-7.164062-16-16-16zm-16 432h-192v-400h80c8.835938 0 16-7.15625 16-16s-7.164062-16-16-16h-16v-16h64v32c0 8.84375 7.164062 16 16 16h.003906.003906 47.992188zm0 0"/>
</svg>