<?xml version="1.0" encoding="utf-8"?>
<!-- Generator: Adobe Illustrator 23.0.1, SVG Export Plug-In . SVG Version: 6.00 Build 0)  -->
<svg fill="#fff" version="1.1" id="Capa_1" xmlns="http://www.w3.org/2000/svg" xmlns:xlink="http://www.w3.org/1999/xlink" x="0px" y="0px"
	 viewBox="0 0 511 511" style="enable-background:new 0 0 511 511;" xml:space="preserve">
<path d="M232.5,511c-1.5,0-3.1-0.2-4.6-0.7c-7.2-2.2-11.9-9.1-11.3-16.6l14.5-174.3H104.8c-5.4,0-10.4-2.7-13.4-7.3
	c-2.9-4.5-3.4-10.2-1.2-15.2L218,9.5c3.1-6.9,10.5-10.7,17.9-9.1c7.4,1.6,12.7,8.1,12.7,15.6v175.7h143.7c5.7,0,10.9,3,13.8,7.9
	c2.9,4.9,2.9,10.9,0.2,15.8L246.5,502.8C243.6,508,238.2,511,232.5,511z M129.4,287.4h119.1c4.5,0,8.7,1.9,11.8,5.2
	c3,3.3,4.5,7.7,4.2,12.1l-9.8,117.7l110.5-198.8H232.5c-8.8,0-16-7.1-16-16V91.2L129.4,287.4z"/>
</svg>
